ns1:Time,ns1:DistanceMeters3,ns2:Speed
2017-11-22T16:09:27.000Z,2813.820068,1.65199995
2017-11-22T16:09:31.000Z,2882.449951,0
2017-11-22T16:09:33.000Z,2884.449951,0.495000005
2017-11-22T16:09:35.000Z,2884.449951,1.138000011
2017-11-22T16:09:37.000Z,2893.449951,2.947999954
2017-11-22T16:09:39.000Z,2906.129883,4.59100008
2017-11-22T16:09:50.000Z,2947.399902,4.880000114
2017-11-22T16:09:56.000Z,2971.100098,4.627999783
2017-11-22T16:09:57.000Z,2975.97998,3.881999969
2017-11-22T16:10:05.000Z,3016,0
2017-11-22T16:10:19.000Z,3020.070068,0
2017-11-22T16:10:44.000Z,3039.620117,0
2017-11-22T16:10:53.000Z,3044.590088,1.231999993
2017-11-22T16:10:55.000Z,3047.040039,1.297000051
2017-11-22T16:10:58.000Z,3051.070068,0.783999979
2017-11-22T16:11:00.000Z,3053.419922,1.01699996
2017-11-22T16:11:01.000Z,3054.629883,1.315999985
2017-11-22T16:11:03.000Z,3059.530029,2.714999914
2017-11-22T16:11:07.000Z,3069.909912,1.585999966
2017-11-22T16:11:10.000Z,3078.310059,1.427999973
2017-11-22T16:11:16.000Z,3095.169922,1.912999988
2017-11-22T16:11:25.000Z,3123,2.482000113
2017-11-22T16:11:27.000Z,3131.76001,3.694999933
2017-11-22T16:11:29.000Z,3142.790039,4.711999893
2017-11-22T16:11:30.000Z,3148.540039,4.907999992
2017-11-22T16:11:31.000Z,3153.699951,4.842999935
2017-11-22T16:11:32.000Z,3159.709961,4.703000069
2017-11-22T16:11:35.000Z,3178.959961,4.609000206
2017-11-22T16:11:39.000Z,3201.100098,4.964000225
2017-11-22T16:11:43.000Z,3217.879883,3.312000036
2017-11-22T16:11:55.000Z,3259.320068,3.648000002
2017-11-22T16:12:00.000Z,3278.320068,3.937999964
2017-11-22T16:12:08.000Z,3316.340088,4.515999794
2017-11-22T16:12:14.000Z,3348.580078,4.356999874
2017-11-22T16:12:15.000Z,3353.76001,5.112999916
2017-11-22T16:12:17.000Z,3365.939941,5.21600008
2017-11-22T16:12:18.000Z,3371.679932,5.197000027
2017-11-22T16:12:19.000Z,3376.530029,4.749000072
2017-11-22T16:12:21.000Z,3386.02002,4.15199995
2017-11-22T16:12:23.000Z,3397.800049,3.75999999
2017-11-22T16:12:25.000Z,3405.899902,2.762000084
2017-11-22T16:12:28.000Z,3414.399902,4.534999847
2017-11-22T16:12:31.000Z,3429.189941,5.076000214
2017-11-22T16:12:35.000Z,3447.25,4.637000084
2017-11-22T16:12:42.000Z,3487.649902,4.039999962
2017-11-22T16:12:48.000Z,3515.189941,4.711999893
2017-11-22T16:13:00.000Z,3577,4.460000038
2017-11-22T16:13:02.000Z,3585.850098,4.132999897
2017-11-22T16:13:06.000Z,3600.26001,3.115999937
2017-11-22T16:13:08.000Z,3607.429932,2.594000101
2017-11-22T16:13:13.000Z,3619.52002,1.912999988
2017-11-22T16:13:17.000Z,3630.959961,2.426000118
2017-11-22T16:13:31.000Z,3648.310059,0
2017-11-22T16:13:33.000Z,3648.639893,0
2017-11-22T16:13:35.000Z,3649.439941,0
2017-11-22T16:13:40.000Z,3652.610107,0
2017-11-22T16:13:44.000Z,3656.830078,0
2017-11-22T16:13:56.000Z,3663.860107,0
2017-11-22T16:13:57.000Z,3663.870117,0
2017-11-22T16:13:58.000Z,3663.870117,0
2017-11-22T16:13:59.000Z,3663.870117,0
2017-11-22T16:14:00.000Z,3664.159912,0
2017-11-22T16:14:01.000Z,3664.51001,0
2017-11-22T16:14:02.000Z,3664.560059,0
2017-11-22T16:14:03.000Z,3666.310059,0.467000008
2017-11-22T16:14:16.000Z,3672.780029,0
2017-11-22T16:14:23.000Z,3678.530029,0
2017-11-22T16:14:35.000Z,3687.429932,0
2017-11-22T16:14:48.000Z,3688.899902,0
2017-11-22T16:14:51.000Z,3690.949951,0
2017-11-22T16:14:54.000Z,3691.780029,0
2017-11-22T16:15:11.000Z,3704.209961,0
2017-11-22T16:15:14.000Z,3708.379883,0
2017-11-22T16:15:16.000Z,3711.02002,0
2017-11-22T16:15:18.000Z,3713.060059,0
2017-11-22T16:15:19.000Z,3716.530029,0
2017-11-22T16:15:38.000Z,3724.040039,0
2017-11-22T16:15:44.000Z,3730.820068,0
2017-11-22T16:15:55.000Z,3732.350098,0
2017-11-22T16:16:15.000Z,3742.25,0
2017-11-22T16:16:20.000Z,3743.340088,0
2017-11-22T16:16:22.000Z,3743.949951,0
2017-11-22T16:16:26.000Z,3744.649902,0
2017-11-22T16:16:46.000Z,3757.26001,1.110000014
2017-11-22T16:16:48.000Z,3758.459961,0.998000026
2017-11-22T16:16:51.000Z,3766.149902,3.555000067
2017-11-22T16:16:53.000Z,3775.409912,3.844000101
2017-11-22T16:16:55.000Z,3783.5,3.480000019
2017-11-22T16:17:12.000Z,3834.820068,2.855000019
2017-11-22T16:17:13.000Z,3837.889893,2.967000008
2017-11-22T16:17:14.000Z,3841.120117,3.227999926
2017-11-22T16:17:16.000Z,3846.72998,2.482000113
2017-11-22T16:17:19.000Z,3853.47998,1.88499999
2017-11-22T16:17:21.000Z,3857.310059,1.781999946
2017-11-22T16:17:24.000Z,3863.77002,2.378999949
2017-11-22T16:17:31.000Z,3883.620117,3.266000032
2017-11-22T16:17:35.000Z,3895.870117,2.201999903
2017-11-22T16:17:42.000Z,3916.330078,2.108999968
2017-11-22T16:17:45.000Z,3924.060059,2.585000038
2017-11-22T16:17:59.000Z,3980.909912,4.272999763
2017-11-22T16:18:00.000Z,3984.449951,3.947000027
2017-11-22T16:18:01.000Z,3988.379883,3.806999922
2017-11-22T16:18:04.000Z,3999.199951,3.983999968
2017-11-22T16:18:17.000Z,4050.459961,2.602999926
2017-11-22T16:18:19.000Z,4056.300049,2.529000044
2017-11-22T16:18:21.000Z,4061.26001,1.847000003
2017-11-22T16:18:29.000Z,4065.860107,0
2017-11-22T16:18:30.000Z,4065.860107,0
2017-11-22T16:18:31.000Z,4065.939941,0
2017-11-22T16:18:33.000Z,4067.600098,0.448000014
2017-11-22T16:18:34.000Z,4070.300049,1.100999951
2017-11-22T16:18:38.000Z,4083.709961,2.322999954
2017-11-22T16:18:44.000Z,4108.160156,4.385000229
2017-11-22T16:18:48.000Z,4126.330078,4.039999962
2017-11-22T16:18:57.000Z,4139.700195,0
2017-11-22T16:19:01.000Z,4140.040039,0
2017-11-22T16:19:17.000Z,4143.740234,0
2017-11-22T16:19:18.000Z,4143.740234,0
2017-11-22T16:19:19.000Z,4144.310059,0
2017-11-22T16:19:20.000Z,4144.310059,0
2017-11-22T16:19:21.000Z,4144.310059,0
2017-11-22T16:19:24.000Z,4144.310059,0
2017-11-22T16:19:27.000Z,4144.620117,0
2017-11-22T16:19:32.000Z,4144.740234,0
2017-11-22T16:19:38.000Z,4145.240234,0
2017-11-22T16:19:39.000Z,4145.790039,0
2017-11-22T16:19:40.000Z,4146.740234,0
2017-11-22T16:19:41.000Z,4146.740234,0
2017-11-22T16:19:42.000Z,4146.740234,0
2017-11-22T16:19:43.000Z,4147.109863,0
2017-11-22T16:19:46.000Z,4149.959961,0
2017-11-22T16:19:50.000Z,4151.580078,0.896000028
2017-11-22T16:19:56.000Z,4171.279785,4.534999847
2017-11-22T16:19:59.000Z,4184.529785,4.563000202
2017-11-22T16:20:01.000Z,4192.97998,4.899000168
2017-11-22T16:20:07.000Z,4214.069824,4.982999802
2017-11-22T16:20:10.000Z,4228.069824,5.028999805
2017-11-22T16:20:13.000Z,4239.529785,4.787000179
2017-11-22T16:20:14.000Z,4242.669922,4.880000114
2017-11-22T16:20:16.000Z,4251.600098,4.796000004
2017-11-22T16:20:18.000Z,4260.870117,4.43200016
2017-11-22T16:20:19.000Z,4264.549805,4.050000191
2017-11-22T16:20:20.000Z,4268.25,4.086999893
2017-11-22T16:20:21.000Z,4272.240234,4.179999828
2017-11-22T16:20:22.000Z,4276,3.667000055
2017-11-22T16:20:23.000Z,4278.720215,3.210000038
2017-11-22T16:20:24.000Z,4283.890137,3.163000107
2017-11-22T16:20:26.000Z,4293.350098,3.414999962
2017-11-22T16:20:31.000Z,4318.919922,4.506999969
2017-11-22T16:20:33.000Z,4330.899902,5.076000214
2017-11-22T16:20:37.000Z,4357.669922,5.346000195
2017-11-22T16:20:39.000Z,4369.52002,4.787000179
2017-11-22T16:20:53.000Z,4427.919922,4.656000137
2017-11-22T16:20:54.000Z,4432.919922,4.703000069
2017-11-22T16:21:03.000Z,4480.359863,5.066999912
2017-11-22T16:21:08.000Z,4510.339844,5.047999859
2017-11-22T16:21:13.000Z,4536.629883,4.59100008
2017-11-22T16:21:23.000Z,4580.399902,4.842999935
2017-11-22T16:21:32.000Z,4629.709961,5.513999939
2017-11-22T16:21:37.000Z,4657.689941,5.589000225
2017-11-22T16:21:41.000Z,4679.919922,5.336999893
2017-11-22T16:21:46.000Z,4708.560059,5.710000038
2017-11-22T16:21:48.000Z,4720.299805,5.56099987
2017-11-22T16:21:53.000Z,4747.410156,4.842999935
2017-11-22T16:21:54.000Z,4752.319824,4.758999825
2017-11-22T16:22:03.000Z,4786.709961,2.378999949
2017-11-22T16:22:04.000Z,4788.810059,1.950000048
2017-11-22T16:22:20.000Z,4803.350098,0
2017-11-22T16:22:27.000Z,4809.359863,0
2017-11-22T16:22:31.000Z,4809.359863,0
2017-11-22T16:22:36.000Z,4813.439941,0
2017-11-22T16:22:37.000Z,4814.109863,0
2017-11-22T16:22:38.000Z,4814.640137,0
2017-11-22T16:22:39.000Z,4814.649902,0
2017-11-22T16:22:41.000Z,4815.299805,0
2017-11-22T16:22:44.000Z,4816.029785,0
2017-11-22T16:22:48.000Z,4816.97998,0
2017-11-22T16:22:49.000Z,4816.97998,0
2017-11-22T16:22:52.000Z,4818.189941,0
2017-11-22T16:23:02.000Z,4820.330078,0
2017-11-22T16:23:17.000Z,4824.459961,0
2017-11-22T16:23:19.000Z,4824.600098,0
2017-11-22T16:23:27.000Z,4848.089844,0
2017-11-22T16:23:34.000Z,4850.009766,0
2017-11-22T16:24:00.000Z,4903.129883,0
2017-11-22T16:24:11.000Z,4906.970215,1.044999957
2017-11-22T16:24:27.000Z,4967.890137,4.815000057
2017-11-22T16:24:28.000Z,4972.990234,4.842999935
2017-11-22T16:24:31.000Z,4987.370117,4.198999882
2017-11-22T16:24:34.000Z,5000.379883,3.788000107
2017-11-22T16:24:35.000Z,5004.709961,3.983999968
2017-11-22T16:24:35.000Z,5004.709961,3.983999968
2017-11-22T16:24:40.000Z,5019.919922,3.09800005
2017-11-22T16:24:45.000Z,5043.259766,4.580999851
2017-11-22T16:24:52.000Z,5082.990234,5.532999992
2017-11-22T16:24:59.000Z,5120.660156,5.448999882
2017-11-22T16:25:06.000Z,5160.029785,4.563000202
2017-11-22T16:25:09.000Z,5173.160156,3.686000109
2017-11-22T16:25:21.000Z,5219.25,4.618999958
2017-11-22T16:25:25.000Z,5240.709961,4.487999916
2017-11-22T16:25:26.000Z,5247.740234,4.198999882
2017-11-22T16:25:27.000Z,5253.529785,4.078000069
2017-11-22T16:25:28.000Z,5258.77002,4.43200016
2017-11-22T16:25:29.000Z,5264.140137,4.572000027
2017-11-22T16:25:34.000Z,5291.589844,4.525000095
2017-11-22T16:25:44.000Z,5344.220215,4.927000046
2017-11-22T16:25:49.000Z,5368,4.749000072
2017-11-22T16:25:51.000Z,5378.790039,5.756999969
2017-11-22T16:25:52.000Z,5384.609863,5.794000149
2017-11-22T16:25:55.000Z,5402.100098,5.822000027
2017-11-22T16:25:57.000Z,5413.790039,5.822000027
2017-11-22T16:26:01.000Z,5442.759766,6.485000134
2017-11-22T16:26:02.000Z,5449.950195,6.559000015
2017-11-22T16:26:04.000Z,5457.600098,6.690000057
2017-11-22T16:27:17.000Z,5515.740234,2.687000036
2017-11-22T16:27:29.000Z,5565.450195,3.947000027
2017-11-22T16:27:32.000Z,5581.080078,3.862999916
2017-11-22T16:27:35.000Z,5591.52002,3.200000048
2017-11-22T16:27:38.000Z,5601.660156,3.237999916
2017-11-22T16:27:42.000Z,5632.450195,3.891000032
2017-11-22T16:27:55.000Z,5663.850098,5.028999805
2017-11-22T16:27:57.000Z,5676.609863,5.868999958
2017-11-22T16:27:59.000Z,5687.709961,6.550000191
2017-11-22T16:28:02.000Z,5700.720215,4.497000217
2017-11-22T16:28:04.000Z,5707,5.429999828
2017-11-22T16:28:08.000Z,5722.459961,4.132999897
2017-11-22T16:28:15.000Z,5750.620117,2.855000019
2017-11-22T16:28:16.000Z,5753.839844,2.313999891
2017-11-22T16:28:20.000Z,5760.919922,1.353000045
2017-11-22T16:28:23.000Z,5767.25,1.735999942
2017-11-22T16:28:24.000Z,5769.350098,1.501999974
2017-11-22T16:28:26.000Z,5772.390137,0.708999991
2017-11-22T16:28:33.000Z,5774.129883,0
2017-11-22T16:28:38.000Z,5776.27002,2.127000093
2017-11-22T16:28:40.000Z,5781.859863,3.349999905
2017-11-22T16:28:46.000Z,5802.25,1.549000025
2017-11-22T16:28:53.000Z,5807.370117,0
2017-11-22T16:28:56.000Z,5808.490234,0
2017-11-22T16:28:57.000Z,5808.669922,0
2017-11-22T16:28:58.000Z,5808.669922,0
2017-11-22T16:28:59.000Z,5808.990234,0
2017-11-22T16:29:07.000Z,5809.25,0
2017-11-22T16:29:08.000Z,5809.25,0
2017-11-22T16:29:09.000Z,5809.379883,0
2017-11-22T16:29:11.000Z,5809.470215,0
2017-11-22T16:29:13.000Z,5809.850098,0
2017-11-22T16:29:14.000Z,5811.649902,3.461999893
2017-11-22T16:29:17.000Z,5824.009766,3.983999968
2017-11-22T16:29:20.000Z,5836.390137,4.198999882
2017-11-22T16:29:25.000Z,5858.100098,3.788000107
2017-11-22T16:29:27.000Z,5865.819824,3.023000002
2017-11-22T16:29:29.000Z,5871.700195,2.145999908
2017-11-22T16:29:31.000Z,5875.27002,1.791000009
2017-11-22T16:29:32.000Z,5876.799805,1.371999979
2017-11-22T16:29:33.000Z,5877.870117,1.166000009
2017-11-22T16:29:36.000Z,5887.950195,4.124000072
2017-11-22T16:29:40.000Z,5904.930176,3.835000038
2017-11-22T16:29:48.000Z,5954.200195,4.031000137
2017-11-22T16:29:52.000Z,5987.129883,3.854000092
2017-11-22T16:29:57.000Z,6008.370117,0
2017-11-22T16:30:00.000Z,6016.069824,1.128999949
2017-11-22T16:30:12.000Z,6051.220215,3.638999939
2017-11-22T16:30:16.000Z,6063.080078,1.856999993
2017-11-22T16:30:21.000Z,6068.810059,1.241000056
2017-11-22T16:30:29.000Z,6069.77002,0
2017-11-22T16:30:30.000Z,6069.839844,0
2017-11-22T16:30:36.000Z,6070.279785,0
2017-11-22T16:30:42.000Z,6081.299805,0.933000028
2017-11-22T16:30:45.000Z,6088.509766,1.05400002
2017-11-22T16:30:48.000Z,6097.640137,0.811999977
2017-11-22T16:30:54.000Z,6098.740234,0
2017-11-22T16:30:55.000Z,6099.02002,0
2017-11-22T16:31:02.000Z,6102.569824,0
2017-11-22T16:31:03.000Z,6103.209961,0
2017-11-22T16:31:04.000Z,6103.740234,0
2017-11-22T16:31:05.000Z,6103.910156,0
2017-11-22T16:31:06.000Z,6103.910156,0
2017-11-22T16:31:07.000Z,6103.910156,0
2017-11-22T16:31:08.000Z,6104,0
2017-11-22T16:31:13.000Z,6104.430176,0
2017-11-22T16:31:15.000Z,6104.540039,0
2017-11-22T16:31:26.000Z,6108.399902,0
2017-11-22T16:31:34.000Z,6109.930176,0
2017-11-22T16:31:43.000Z,6121.680176,0
2017-11-22T16:31:46.000Z,6124.330078,1.05400002
2017-11-22T16:31:50.000Z,6126.439941,2.089999914
2017-11-22T16:31:53.000Z,6132.879883,3.507999897
2017-11-22T16:31:57.000Z,6142.149902,3.246999979
2017-11-22T16:32:08.000Z,6150.080078,0
2017-11-22T16:32:28.000Z,6155.930176,0
2017-11-22T16:32:47.000Z,6161.22998,0
2017-11-22T16:32:48.000Z,6161.22998,0
2017-11-22T16:32:50.000Z,6161.22998,0
2017-11-22T16:33:04.000Z,6168.649902,0
2017-11-22T16:33:09.000Z,6172.220215,0
2017-11-22T16:33:10.000Z,6172.25,0
2017-11-22T16:33:11.000Z,6173.140137,0
2017-11-22T16:33:12.000Z,6173.680176,0.467000008
2017-11-22T16:33:13.000Z,6173.859863,0
2017-11-22T16:33:14.000Z,6174.080078,0
2017-11-22T16:33:16.000Z,6174.259766,0
2017-11-22T16:33:18.000Z,6175.109863,0
2017-11-22T16:33:27.000Z,6179.540039,0
2017-11-22T16:33:34.000Z,6186.25,0.924000025
2017-11-22T16:33:45.000Z,6219.22998,4.675000191
2017-11-22T16:33:52.000Z,6250.919922,4.815000057
2017-11-22T16:33:58.000Z,6276.439941,4.272999763
2017-11-22T16:34:04.000Z,6304.600098,4.356999874
2017-11-22T16:34:05.000Z,6308.899902,3.927999973
2017-11-22T16:34:08.000Z,6323.390137,4.375999928
2017-11-22T16:34:11.000Z,6336.560059,3.742000103
2017-11-22T16:34:12.000Z,6340.870117,3.815999985
2017-11-22T16:34:16.000Z,6360.509766,4.244999886
2017-11-22T16:34:23.000Z,6393.370117,3.983999968
2017-11-22T16:34:24.000Z,6397.509766,3.686000109
2017-11-22T16:34:32.000Z,6432.310059,4.217000008
2017-11-22T16:34:40.000Z,6470.75,4.15199995
2017-11-22T16:34:45.000Z,6496.640137,4.637000084
2017-11-22T16:34:46.000Z,6501.169922,4.580999851
2017-11-22T16:34:47.000Z,6505.75,4.506999969
2017-11-22T16:34:48.000Z,6510.410156,4.796000004
2017-11-22T16:34:49.000Z,6515.27002,4.721000195
2017-11-22T16:34:50.000Z,6520.089844,4.646999836
2017-11-22T16:34:51.000Z,6524.720215,4.440999985
2017-11-22T16:34:56.000Z,6548.319824,4.506999969
2017-11-22T16:35:02.000Z,6577.100098,4.599999905
2017-11-22T16:35:17.000Z,6637.629883,3.96600008
2017-11-22T16:35:32.000Z,6700.490234,3.732000113
2017-11-22T16:35:38.000Z,6722.600098,4.244999886
2017-11-22T16:35:40.000Z,6730.540039,3.862999916
2017-11-22T16:35:48.000Z,6759.899902,3.190999985
2017-11-22T16:35:58.000Z,6801.029785,3.200000048
2017-11-22T16:36:07.000Z,6839.470215,4.93599987
2017-11-22T16:36:18.000Z,6901.169922,5.625999928
2017-11-22T16:36:28.000Z,6961.830078,5.831999779
2017-11-22T16:36:30.000Z,6972.75,5.570000172
2017-11-22T16:36:31.000Z,6978.100098,5.68200016
2017-11-22T16:36:40.000Z,7032.120117,5.59800005
2017-11-22T16:36:42.000Z,7046.700195,5.374000072
2017-11-22T16:36:48.000Z,7086.02002,5.68200016
2017-11-22T16:36:49.000Z,7091.930176,5.915999889
2017-11-22T16:36:56.000Z,7130.560059,4.899000168
2017-11-22T16:37:00.000Z,7152.819824,4.675000191
2017-11-22T16:37:03.000Z,7166.350098,4.618999958
2017-11-22T16:37:07.000Z,7189.109863,5.112999916
2017-11-22T16:37:16.000Z,7229.220215,4.078000069
2017-11-22T16:37:24.000Z,7272.609863,4.768000126
2017-11-22T16:37:26.000Z,7283.919922,3.582999945
2017-11-22T16:37:28.000Z,7289.540039,2.322999954
2017-11-22T16:37:29.000Z,7291.049805,1.361999989
2017-11-22T16:37:32.000Z,7299.080078,2.836999893
2017-11-22T16:37:33.000Z,7301.930176,2.687000036
2017-11-22T16:37:36.000Z,7306.27002,1.493000031
2017-11-22T16:37:40.000Z,7318.060059,2.351000071
2017-11-22T16:37:43.000Z,7324.859863,2.351000071
2017-11-22T16:37:46.000Z,7331.169922,0.980000019
2017-11-22T16:37:48.000Z,7331.890137,0
2017-11-22T16:38:11.000Z,7335.410156,0
2017-11-22T16:38:18.000Z,7336.910156,0
2017-11-22T16:38:19.000Z,7336.939941,0
2017-11-22T16:38:20.000Z,7336.959961,0
2017-11-22T16:38:21.000Z,7336.959961,0
2017-11-22T16:38:22.000Z,7336.970215,0
2017-11-22T16:38:23.000Z,7336.990234,0
2017-11-22T16:38:24.000Z,7337,0
2017-11-22T16:38:25.000Z,7337,0
2017-11-22T16:38:28.000Z,7337.040039,0
2017-11-22T16:38:36.000Z,7337.470215,0
2017-11-22T16:38:48.000Z,7338.450195,0
2017-11-22T16:38:51.000Z,7338.779785,0
2017-11-22T16:38:57.000Z,7339.220215,0
2017-11-22T16:38:59.000Z,7339.310059,0
2017-11-22T16:39:03.000Z,7339.490234,0
2017-11-22T16:39:21.000Z,7343.22998,1.315999985
2017-11-22T16:39:29.000Z,7361.009766,3.078999996
2017-11-22T16:39:45.000Z,7408.790039,3.33100009
2017-11-22T16:39:47.000Z,7415.870117,3.703999996
2017-11-22T16:39:50.000Z,7429.399902,4.815000057
2017-11-22T16:39:52.000Z,7439.689941,4.711999893
2017-11-22T16:39:58.000Z,7462.549805,2.976000071
2017-11-22T16:40:00.000Z,7467.72998,2.585000038
2017-11-22T16:40:07.000Z,7494.700195,3.601999998
2017-11-22T16:40:09.000Z,7503.009766,4.59100008
2017-11-22T16:40:11.000Z,7514.209961,5.989999771
2017-11-22T16:40:13.000Z,7527.410156,6.782999992
2017-11-22T16:40:15.000Z,7542.450195,6.960999966
2017-11-22T16:40:17.000Z,7557.080078,6.886000156
2017-11-22T16:40:18.000Z,7564.029785,6.81099987
2017-11-22T16:40:19.000Z,7570.910156,6.709000111
2017-11-22T16:40:23.000Z,7597.089844,6.363999844
2017-11-22T16:40:28.000Z,7626.970215,5.803999901
2017-11-22T16:40:35.000Z,7668.129883,5.803999901
2017-11-22T16:40:41.000Z,7700.240234,5.364999771
2017-11-22T16:40:45.000Z,7722.100098,5.393000126
2017-11-22T16:40:49.000Z,7743.600098,5.131999969
2017-11-22T16:40:52.000Z,7758.839844,4.907999992
2017-11-22T16:40:54.000Z,7768.52002,4.815000057
2017-11-22T16:40:56.000Z,7778.180176,4.945000172
2017-11-22T16:40:57.000Z,7783.180176,5.019999981
2017-11-22T16:41:02.000Z,7809.589844,5.224999905
2017-11-22T16:41:06.000Z,7830.709961,4.618999958
2017-11-22T16:41:09.000Z,7843.370117,4.012000084
2017-11-22T16:41:10.000Z,7847.279785,3.900000095
2017-11-22T16:41:13.000Z,7860.450195,4.618999958
2017-11-22T16:41:14.000Z,7865.339844,5.047999859
2017-11-22T16:41:18.000Z,7885.740234,5.123000145
2017-11-22T16:41:21.000Z,7901.600098,5.197000027
2017-11-22T16:41:22.000Z,7907.02002,5.477000237
2017-11-22T16:41:24.000Z,7918.140137,5.346000195
2017-11-22T16:41:27.000Z,7934.959961,5.364999771
2017-11-22T16:41:28.000Z,7940.339844,5.383999825
2017-11-22T16:41:30.000Z,7951.279785,5.252999783
2017-11-22T16:41:32.000Z,7961.450195,5.047999859
2017-11-22T16:41:34.000Z,7971.100098,5.039000034
2017-11-22T16:41:35.000Z,7976.080078,5.039000034
2017-11-22T16:41:36.000Z,7980.910156,4.721000195
2017-11-22T16:41:39.000Z,7996.450195,5.000999928
2017-11-22T16:41:41.000Z,8006.810059,5.076000214
2017-11-22T16:41:42.000Z,8011.810059,5.09499979
2017-11-22T16:41:43.000Z,8016.350098,4.002999783
2017-11-22T16:41:45.000Z,8025.560059,4.664999962
2017-11-22T16:41:47.000Z,8035.649902,5.066999912
2017-11-22T16:41:48.000Z,8040.830078,5.169000149
2017-11-22T16:41:50.000Z,8051.589844,5.235000134
2017-11-22T16:41:53.000Z,8066.950195,4.815000057
2017-11-22T16:41:54.000Z,8071.680176,4.664999962
2017-11-22T16:41:56.000Z,8080.27002,4.002999783
2017-11-22T16:41:58.000Z,8094.450195,4.515999794
2017-11-22T16:42:00.000Z,8107.200195,5.224999905
2017-11-22T16:42:03.000Z,8124.970215,5.011000156
2017-11-22T16:42:09.000Z,8149.240234,4.403999805
2017-11-22T16:42:12.000Z,8163.100098,4.97300005
2017-11-22T16:42:13.000Z,8167.620117,4.609000206
2017-11-22T16:42:14.000Z,8172.080078,4.964000225
2017-11-22T16:42:16.000Z,8181.149902,4.227000237
2017-11-22T16:42:18.000Z,8191.25,3.742000103
2017-11-22T16:42:20.000Z,8201.549805,4.627999783
2017-11-22T16:42:21.000Z,8207.030273,4.907999992
2017-11-22T16:42:22.000Z,8212.610352,4.870999813
2017-11-22T16:42:24.000Z,8223.589844,5.477000237
2017-11-22T16:42:25.000Z,8229.280273,5.151000023
2017-11-22T16:42:26.000Z,8234.780273,5.300000191
2017-11-22T16:42:27.000Z,8240.200195,4.97300005
2017-11-22T16:42:28.000Z,8244.669922,4.050000191
2017-11-22T16:42:29.000Z,8247.830078,2.621999979
2017-11-22T16:42:30.000Z,8250.349609,2.538000107
2017-11-22T16:42:32.000Z,8255.5,2.789999962
2017-11-22T16:42:39.000Z,8283.959961,4.078000069
2017-11-22T16:42:44.000Z,8306.200195,4.096000195
2017-11-22T16:42:48.000Z,8325.009766,4.609000206
2017-11-22T16:42:53.000Z,8347.459961,3.854000092
2017-11-22T16:42:56.000Z,8359.389648,4.039999962
2017-11-22T16:42:58.000Z,8368.799805,4.525000095
2017-11-22T16:43:02.000Z,8386.389648,4.06799984
2017-11-22T16:43:04.000Z,8393.389648,2.994999886
2017-11-22T16:43:07.000Z,8402.320313,3.275000095
2017-11-22T16:43:11.000Z,8417,3.891000032
2017-11-22T16:43:12.000Z,8421.009766,3.835000038
2017-11-22T16:43:14.000Z,8428.379883,3.703999996
2017-11-22T16:43:17.000Z,8437.910156,3.237999916
2017-11-22T16:43:21.000Z,8452.820313,3.891000032
2017-11-22T16:43:22.000Z,8456.480469,4.132999897
2017-11-22T16:43:28.000Z,8481.94043,4.787000179
2017-11-22T16:43:38.000Z,8524.30957,2.882999897
2017-11-22T16:43:40.000Z,8528.009766,2.052999973
2017-11-22T16:43:44.000Z,8537.450195,2.361000061
2017-11-22T16:43:45.000Z,8540.179688,2.743000031
2017-11-22T16:43:47.000Z,8546.280273,2.490999937
2017-11-22T16:43:50.000Z,8555.610352,3.023000002
2017-11-22T16:43:52.000Z,8560.379883,1.64199996
2017-11-22T16:43:56.000Z,8567.480469,2.108999968
2017-11-22T16:43:58.000Z,8574.139648,2.986000061
2017-11-22T16:44:04.000Z,8582.730469,0
2017-11-22T16:44:15.000Z,8584.009766,0
2017-11-22T16:44:17.000Z,8584.209961,0
2017-11-22T16:44:20.000Z,8584.5,0
2017-11-22T16:44:24.000Z,8584.5,0
2017-11-22T16:44:31.000Z,8584.589844,0
2017-11-22T16:44:38.000Z,8585.740234,0
2017-11-22T16:44:39.000Z,8585.950195,0
2017-11-22T16:44:41.000Z,8586.070313,0
2017-11-22T16:44:43.000Z,8586.129883,0
2017-11-22T16:44:47.000Z,8586.549805,0
2017-11-22T16:44:48.000Z,8586.549805,0
2017-11-22T16:44:54.000Z,8587.389648,0
2017-11-22T16:45:06.000Z,8587.700195,0
2017-11-22T16:45:11.000Z,8588.410156,0
2017-11-22T16:45:21.000Z,8590.240234,0
2017-11-22T16:45:23.000Z,8591.200195,0
2017-11-22T16:45:39.000Z,8595,0
2017-11-22T16:45:44.000Z,8596.129883,0
2017-11-22T16:45:47.000Z,8596.780273,0
2017-11-22T16:45:52.000Z,8599.900391,1.269000053
2017-11-22T16:46:05.000Z,8631.990234,3.322000027
2017-11-22T16:46:07.000Z,8640.280273,4.525000095
2017-11-22T16:46:09.000Z,8650.860352,6.037000179
2017-11-22T16:46:10.000Z,8657.410156,6.037000179
2017-11-22T16:46:14.000Z,8683.919922,6.018000126
2017-11-22T16:46:17.000Z,8699.719727,4.208000183
2017-11-22T16:46:20.000Z,8710.599609,2.089999914
2017-11-22T16:46:28.000Z,8715.419922,0
2017-11-22T16:46:35.000Z,8717.330078,1.241000056
2017-11-22T16:46:38.000Z,8722.490234,2.799000025
2017-11-22T16:46:44.000Z,8744.799805,2.164999962
2017-11-22T16:47:01.000Z,8755.209961,1.100999951
2017-11-22T16:47:04.000Z,8760.75,1.735999942
2017-11-22T16:47:11.000Z,8785.040039,3.52699995
2017-11-22T16:47:15.000Z,8801.519531,3.854000092
2017-11-22T16:47:18.000Z,8815.230469,4.059000015
2017-11-22T16:47:21.000Z,8827.55957,3.638999939
2017-11-22T16:47:25.000Z,8842.150391,3.648000002
2017-11-22T16:47:31.000Z,8864.009766,3.125999928
2017-11-22T16:47:36.000Z,8879.05957,3.322000027
2017-11-22T16:47:37.000Z,8882.599609,3.256000042
2017-11-22T16:47:47.000Z,8925.490234,5.076000214
2017-11-22T16:47:56.000Z,8940.620117,0
2017-11-22T16:48:03.000Z,8941.580078,0
2017-11-22T16:48:11.000Z,8942.990234,0
2017-11-22T16:48:13.000Z,8943.19043,0
2017-11-22T16:48:14.000Z,8943.870117,0
2017-11-22T16:48:25.000Z,8949.709961,0
2017-11-22T16:48:27.000Z,8950.799805,0
2017-11-22T16:48:42.000Z,8957.94043,0
2017-11-22T16:48:47.000Z,8958.179688,0
2017-11-22T16:48:48.000Z,8958.219727,0
2017-11-22T16:48:52.000Z,8958.509766,0
2017-11-22T16:49:06.000Z,8959.030273,0
2017-11-22T16:49:08.000Z,8960.379883,1.501999974
2017-11-22T16:49:19.000Z,8987.169922,2.930000067
2017-11-22T16:49:24.000Z,9003.570313,2.780999899
2017-11-22T16:49:30.000Z,9026.30957,4.599999905
2017-11-22T16:49:37.000Z,9062.349609,5.011000156
2017-11-22T16:49:44.000Z,9093.769531,3.443000078
2017-11-22T16:49:50.000Z,9102.150391,0
2017-11-22T16:50:03.000Z,9104.400391,0
2017-11-22T16:50:04.000Z,9104.469727,0
2017-11-22T16:50:12.000Z,9104.980469,0
2017-11-22T16:50:15.000Z,9105.049805,0
2017-11-22T16:50:19.000Z,9105.120117,0
2017-11-22T16:50:22.000Z,9105.169922,0
2017-11-22T16:50:32.000Z,9105.290039,0
2017-11-22T16:50:43.000Z,9105.94043,0
2017-11-22T16:50:52.000Z,9106.30957,0
2017-11-22T16:50:54.000Z,9106.320313,0
2017-11-22T16:50:56.000Z,9106.339844,0
2017-11-22T16:51:02.000Z,9107.419922,1.138000011
2017-11-22T16:51:13.000Z,9149.629883,4.403999805
2017-11-22T16:51:17.000Z,9168.269531,4.758999825
2017-11-22T16:51:22.000Z,9192.370117,4.899000168
2017-11-22T16:51:23.000Z,9197.160156,4.833000183
2017-11-22T16:51:27.000Z,9216.30957,4.927000046
2017-11-22T16:51:29.000Z,9226.25,5.076000214
2017-11-22T16:51:35.000Z,9256.410156,4.927000046
2017-11-22T16:51:39.000Z,9276.099609,4.804999828
2017-11-22T16:51:42.000Z,9290.599609,4.899000168
2017-11-22T16:51:45.000Z,9305.139648,4.815000057
2017-11-22T16:51:49.000Z,9324.860352,4.916999817
2017-11-22T16:51:53.000Z,9344.669922,4.982999802
2017-11-22T16:51:58.000Z,9369.450195,4.982999802
2017-11-22T16:52:01.000Z,9384.150391,4.721000195
2017-11-22T16:52:05.000Z,9403.259766,4.804999828
2017-11-22T16:52:10.000Z,9427.469727,4.739999771
2017-11-22T16:52:15.000Z,9452.55957,5.159999847
2017-11-22T16:52:19.000Z,9472.980469,4.982999802
2017-11-22T16:52:24.000Z,9497.349609,4.721000195
2017-11-22T16:52:27.000Z,9511.660156,4.768000126
2017-11-22T16:52:31.000Z,9530.540039,4.684000015
2017-11-22T16:52:35.000Z,9549.730469,4.823999882
2017-11-22T16:52:38.000Z,9563.780273,4.637000084
2017-11-22T16:52:40.000Z,9573.030273,4.525000095
2017-11-22T16:52:43.000Z,9585.900391,4.301000118
2017-11-22T16:52:47.000Z,9603,4.021999836
2017-11-22T16:52:51.000Z,9616.860352,3.078999996
2017-11-22T16:52:57.000Z,9635.019531,2.426000118
2017-11-22T16:53:03.000Z,9643.360352,0
2017-11-22T16:53:11.000Z,9646.05957,0
2017-11-22T16:53:17.000Z,9647.120117,0
2017-11-22T16:53:18.000Z,9647.120117,0
2017-11-22T16:53:19.000Z,9647.360352,0
2017-11-22T16:53:23.000Z,9647.730469,0
2017-11-22T16:53:24.000Z,9647.820313,0
2017-11-22T16:53:25.000Z,9647.820313,0
2017-11-22T16:53:26.000Z,9647.820313,0
2017-11-22T16:53:28.000Z,9647.860352,0
2017-11-22T16:53:36.000Z,9647.969727,0
2017-11-22T16:53:38.000Z,9647.980469,0
2017-11-22T16:53:49.000Z,9648.120117,0
2017-11-22T16:53:50.000Z,9648.139648,0
2017-11-22T16:53:51.000Z,9648.150391,0
2017-11-22T16:53:52.000Z,9648.179688,0
2017-11-22T16:53:56.000Z,9648.25,0
2017-11-22T16:54:15.000Z,9652.679688,1.166000009
2017-11-22T16:54:24.000Z,9654.509766,0.924000025
2017-11-22T16:54:29.000Z,9667.870117,3.638999939
2017-11-22T16:54:31.000Z,9676.299805,4.18900013
2017-11-22T16:54:33.000Z,9684.360352,4.236000061
2017-11-22T16:54:34.000Z,9688.610352,4.320000172
2017-11-22T16:54:35.000Z,9692.990234,4.31099987
2017-11-22T16:54:37.000Z,9702.030273,4.804999828
2017-11-22T16:54:39.000Z,9710.200195,3.806999922
2017-11-22T16:54:44.000Z,9726.540039,2.565999985
2017-11-22T16:54:57.000Z,9736.129883,1.44599998
2017-11-22T16:55:05.000Z,9752.570313,2.220999956
2017-11-22T16:55:07.000Z,9756.349609,1.950000048
2017-11-22T16:55:09.000Z,9761.080078,2.921000004
2017-11-22T16:55:11.000Z,9767.389648,3.003999949
2017-11-22T16:55:14.000Z,9776.610352,3.09800005
2017-11-22T16:55:24.000Z,9815.780273,4.544000149
2017-11-22T16:55:36.000Z,9875.900391,5.169000149
2017-11-22T16:55:37.000Z,9881.05957,4.627999783
2017-11-22T16:55:47.000Z,9928.919922,4.506999969
2017-11-22T16:55:49.000Z,9938.070313,4.525000095
2017-11-22T16:55:51.000Z,9947.379883,4.618999958
2017-11-22T16:55:57.000Z,9980.269531,5.653999805
2017-11-22T16:56:01.000Z,10003.23047,5.383999825
2017-11-22T16:56:05.000Z,10023.78027,4.842999935
2017-11-22T16:56:14.000Z,10064.45996,4.385000229
2017-11-22T16:56:15.000Z,10068.98047,4.497000217
2017-11-22T16:56:29.000Z,10129.94043,4.272999763
2017-11-22T16:56:38.000Z,10168.75,4.282999992
2017-11-22T16:56:42.000Z,10186.32031,4.460000038
2017-11-22T16:56:44.000Z,10195.50977,4.646999836
2017-11-22T16:56:46.000Z,10205.24023,4.758999825
2017-11-22T16:56:47.000Z,10209.91992,4.664999962
2017-11-22T16:56:48.000Z,10214.74023,4.992000103
2017-11-22T16:56:54.000Z,10247.0498,5.664000034
2017-11-22T16:56:56.000Z,10258.48047,5.664000034
2017-11-22T16:57:01.000Z,10288.67969,6.037000179
2017-11-22T16:57:03.000Z,10300.88965,5.961999893
2017-11-22T16:57:06.000Z,10319.17969,6.111999989
2017-11-22T16:57:07.000Z,10325.38965,6.056000233
2017-11-22T16:57:11.000Z,10349.66016,6
2017-11-22T16:57:15.000Z,10373.00977,6
2017-11-22T16:57:19.000Z,10398.41992,6.139999866
2017-11-22T16:57:24.000Z,10428.62988,5.813000202
2017-11-22T16:57:27.000Z,10444.28027,4.749000072
2017-11-22T16:57:34.000Z,10475.73047,4.282999992
2017-11-22T16:57:42.000Z,10517.15039,5.429999828
2017-11-22T16:57:47.000Z,10546.48047,5.178999901
2017-11-22T16:57:48.000Z,10551.42969,4.59100008
2017-11-22T16:57:54.000Z,10560.36035,0
2017-11-22T16:58:02.000Z,10562.16992,0
2017-11-22T16:58:08.000Z,10564.23047,0
2017-11-22T16:58:14.000Z,10565.83984,0
2017-11-22T16:58:16.000Z,10566.12988,0
2017-11-22T16:58:19.000Z,10567.58008,0
2017-11-22T16:58:26.000Z,10568.34961,0
2017-11-22T16:58:28.000Z,10568.45996,0
2017-11-22T16:58:30.000Z,10568.67969,0
2017-11-22T16:58:36.000Z,10568.94043,0
2017-11-22T16:58:39.000Z,10569.03027,0
2017-11-22T16:59:06.000Z,10572.75,0
2017-11-22T16:59:12.000Z,10574.16992,1.315999985
2017-11-22T16:59:23.000Z,10619.4502,4.675000191
2017-11-22T16:59:35.000Z,10678.96973,5.178999901
2017-11-22T16:59:39.000Z,10700.87988,5.40199995
2017-11-22T16:59:40.000Z,10706.25977,5.328000069
2017-11-22T16:59:44.000Z,10727.25,5.09499979
2017-11-22T16:59:45.000Z,10732.38965,5.066999912
2017-11-22T16:59:47.000Z,10742.54004,4.964000225
2017-11-22T16:59:52.000Z,10768.74023,5.300000191
2017-11-22T16:59:54.000Z,10779.5498,5.328000069
2017-11-22T16:59:59.000Z,10805.71973,5.290999889
2017-11-22T17:00:00.000Z,10811.00977,5.281000137
2017-11-22T17:00:02.000Z,10821.92969,5.429999828
2017-11-22T17:00:04.000Z,10832.83008,5.346000195
2017-11-22T17:00:06.000Z,10843.20996,5.188000202
2017-11-22T17:00:15.000Z,10890.12988,5.355999947
2017-11-22T17:00:22.000Z,10924.37988,4.572000027
2017-11-22T17:00:26.000Z,10942.37012,4.021999836
2017-11-22T17:00:40.000Z,10958.9502,0
2017-11-22T17:00:48.000Z,10959.36035,0
2017-11-22T17:00:49.000Z,10959.46973,0
2017-11-22T17:00:51.000Z,10959.48047,0
2017-11-22T17:00:53.000Z,10959.5,0
2017-11-22T17:00:56.000Z,10959.51953,0
2017-11-22T17:01:00.000Z,10959.51953,0
2017-11-22T17:01:04.000Z,10959.54004,0
2017-11-22T17:01:05.000Z,10959.5498,0
2017-11-22T17:01:09.000Z,10959.62988,0
2017-11-22T17:01:12.000Z,10959.7002,0
2017-11-22T17:01:17.000Z,10959.90039,0
2017-11-22T17:01:36.000Z,10963.83984,1.203999996
2017-11-22T17:01:52.000Z,11024.05957,4.721000195
2017-11-22T17:01:55.000Z,11038.74023,4.93599987
2017-11-22T17:01:58.000Z,11054.66016,5.440000057
2017-11-22T17:02:01.000Z,11072.74023,6.34499979
2017-11-22T17:02:04.000Z,11092.83008,6.998000145
2017-11-22T17:02:05.000Z,11099.74023,6.578000069
2017-11-22T17:02:06.000Z,11106.4502,6.428999901
2017-11-22T17:02:07.000Z,11113.15039,6.727000237
2017-11-22T17:02:10.000Z,11134.91016,6.867000103
2017-11-22T17:02:20.000Z,11198.59961,5.355999947
2017-11-22T17:02:32.000Z,11263.25977,4.907999992
2017-11-22T17:02:47.000Z,11326.62988,3.256000042
2017-11-22T17:02:48.000Z,11330.21973,3.322000027
2017-11-22T17:03:06.000Z,11372.65039,0
2017-11-22T17:03:14.000Z,11373.82031,0
2017-11-22T17:03:15.000Z,11373.94043,0
2017-11-22T17:03:16.000Z,11374.16992,0
2017-11-22T17:03:17.000Z,11374.36035,0
2017-11-22T17:03:27.000Z,11377.20996,0
2017-11-22T17:03:30.000Z,11378.5,0
2017-11-22T17:03:33.000Z,11379.05957,0
2017-11-22T17:03:37.000Z,11379.51953,0
2017-11-22T17:03:39.000Z,11379.55957,0
2017-11-22T17:03:44.000Z,11381.66016,1.25999999
2017-11-22T17:03:49.000Z,11391.66992,2.332999945
2017-11-22T17:03:53.000Z,11397.30957,0.560000002
2017-11-22T17:03:57.000Z,11398.78027,0
2017-11-22T17:03:59.000Z,11399,0
2017-11-22T17:04:01.000Z,11399.30957,0
2017-11-22T17:04:03.000Z,11399.99023,0
2017-11-22T17:04:14.000Z,11400.82031,0
2017-11-22T17:04:16.000Z,11401.01953,0
2017-11-22T17:04:17.000Z,11401.01953,0
2017-11-22T17:04:18.000Z,11401.19043,0
2017-11-22T17:04:21.000Z,11401.40039,0
2017-11-22T17:04:46.000Z,11406.41016,0
2017-11-22T17:04:55.000Z,11408.41016,0
2017-11-22T17:04:57.000Z,11408.92969,0
2017-11-22T17:05:13.000Z,11414.25,0
2017-11-22T17:05:30.000Z,11424.16992,0
2017-11-22T17:05:42.000Z,11428.37012,1.353000045
2017-11-22T17:05:47.000Z,11440.46973,3.451999903
2017-11-22T17:05:55.000Z,11464.13965,2.453999996
2017-11-22T17:05:59.000Z,11473.66992,2.015000105
2017-11-22T17:06:04.000Z,11489.12988,3.200000048
2017-11-22T17:06:08.000Z,11504.98047,3.742000103
2017-11-22T17:06:10.000Z,11513.9502,4.413000107
2017-11-22T17:06:12.000Z,11524.05957,4.982999802
2017-11-22T17:06:13.000Z,11529.44043,5.112999916
2017-11-22T17:06:14.000Z,11534.98047,5.09499979
2017-11-22T17:06:17.000Z,11549.48047,4.580999851
2017-11-22T17:06:21.000Z,11568.98047,4.272999763
2017-11-22T17:06:24.000Z,11582.11035,3.937999964
2017-11-22T17:06:28.000Z,11599.2002,4.272999763
2017-11-22T17:06:29.000Z,11603.86035,4.656000137
2017-11-22T17:06:30.000Z,11608.91016,4.861000061
2017-11-22T17:06:34.000Z,11630.70996,5.636000156
2017-11-22T17:06:37.000Z,11648.29004,5.934000015
2017-11-22T17:06:40.000Z,11667.99023,6.802000046
2017-11-22T17:06:41.000Z,11674.88965,7.110000134
2017-11-22T17:06:42.000Z,11682.2002,7.511000156
2017-11-22T17:06:43.000Z,11689.87988,7.623000145
2017-11-22T17:06:44.000Z,11697.51953,7.324999809
2017-11-22T17:06:45.000Z,11705.23047,7.296999931
2017-11-22T17:06:46.000Z,11712.66016,7.09100008
2017-11-22T17:06:47.000Z,11720.13965,7.118999958
2017-11-22T17:06:50.000Z,11742.12012,6.755000114
2017-11-22T17:06:55.000Z,11774.07031,5.915999889
2017-11-22T17:06:56.000Z,11779.83008,5.776000023
2017-11-22T17:06:59.000Z,11796.87012,5.691999912
2017-11-22T17:07:02.000Z,11814.12988,5.961999893
2017-11-22T17:07:06.000Z,11839.73047,6.420000076
2017-11-22T17:07:09.000Z,11860.12988,6.745999813
2017-11-22T17:07:12.000Z,11881.62988,7.157000065
2017-11-22T17:07:15.000Z,11904.5498,7.613999844
2017-11-22T17:07:16.000Z,11912.36035,7.837999821
2017-11-22T17:07:18.000Z,11928.24023,7.828000069
2017-11-22T17:07:21.000Z,11951.24023,7.315000057
2017-11-22T17:07:25.000Z,11981.25977,7.203000069
2017-11-22T17:07:27.000Z,11995.62988,7.129000187
2017-11-22T17:07:29.000Z,12009.41992,6.857999802
2017-11-22T17:07:32.000Z,12029.73047,6.652999878
2017-11-22T17:07:33.000Z,12036.0498,6.34499979
2017-11-22T17:07:36.000Z,12056.0498,6.578000069
2017-11-22T17:07:40.000Z,12084.19043,6.941999912
2017-11-22T17:07:42.000Z,12098.32031,6.793000221
2017-11-22T17:07:44.000Z,12112.61035,7.081999779
2017-11-22T17:07:48.000Z,12140.91992,6.951000214
2017-11-22T17:07:50.000Z,12154.7998,6.802000046
2017-11-22T17:07:53.000Z,12174.87988,6.540999889
2017-11-22T17:07:58.000Z,12205.96973,5.756999969
2017-11-22T17:07:59.000Z,12211.54004,5.513999939
2017-11-22T17:08:01.000Z,12222.30957,5.513999939
2017-11-22T17:08:03.000Z,12232.74023,4.93599987
2017-11-22T17:08:05.000Z,12241.55957,4.515999794
2017-11-22T17:08:07.000Z,12250.29004,3.676000118
2017-11-22T17:08:12.000Z,12270.70996,3.387000084
2017-11-22T17:08:20.000Z,12282.03027,0
2017-11-22T17:08:33.000Z,12284.94043,0
2017-11-22T17:08:44.000Z,12286.4502,0
2017-11-22T17:08:46.000Z,12286.50977,0
2017-11-22T17:08:48.000Z,12287.23047,0
2017-11-22T17:08:58.000Z,12292.42969,0
2017-11-22T17:09:07.000Z,12297.08984,0
2017-11-22T17:09:15.000Z,12300.92969,0
2017-11-22T17:09:19.000Z,12307.29004,1.371999979
2017-11-22T17:09:21.000Z,12310.84961,1.465000033
2017-11-22T17:09:23.000Z,12316.48047,2.809000015
2017-11-22T17:09:28.000Z,12337.37988,4.730999947
2017-11-22T17:09:32.000Z,12356.54004,4.656000137
2017-11-22T17:09:35.000Z,12371.16992,5.066999912
2017-11-22T17:09:36.000Z,12376.54004,5.140999794
2017-11-22T17:09:37.000Z,12381.90039,5.09499979
2017-11-22T17:09:39.000Z,12392.76953,5.05700016
2017-11-22T17:09:42.000Z,12408.76953,5.290999889
2017-11-22T17:09:44.000Z,12419.21973,4.93599987
2017-11-22T17:09:47.000Z,12434.44043,5.066999912
2017-11-22T17:09:48.000Z,12439.75,5.028999805
2017-11-22T17:09:49.000Z,12445.01953,5.09499979
2017-11-22T17:09:55.000Z,12481.46973,6.381999969
2017-11-22T17:09:57.000Z,12494.90039,6.614999771
2017-11-22T17:09:59.000Z,12508.61035,6.671000004
2017-11-22T17:10:02.000Z,12529.87012,6.709000111
2017-11-22T17:10:05.000Z,12551,7.110000134
2017-11-22T17:10:08.000Z,12572.83008,7.342999935
2017-11-22T17:10:11.000Z,12595.20996,7.539000034
2017-11-22T17:10:14.000Z,12618.91016,7.678999901
2017-11-22T17:10:17.000Z,12641.44043,6.709000111
2017-11-22T17:10:19.000Z,12655.17969,6.420000076
2017-11-22T17:10:22.000Z,12674.26953,5.980999947
2017-11-22T17:10:27.000Z,12707.2002,6.839000225
2017-11-22T17:10:30.000Z,12729.24023,7.324999809
2017-11-22T17:10:33.000Z,12751.15039,7.258999825
2017-11-22T17:10:37.000Z,12780.2002,7.072999954
2017-11-22T17:10:39.000Z,12794.41992,7.184999943
2017-11-22T17:10:42.000Z,12816.57031,7.110000134
2017-11-22T17:10:43.000Z,12823.5498,6.717999935
2017-11-22T17:10:45.000Z,12837.03027,6.28000021
2017-11-22T17:10:46.000Z,12843.38965,6.196000099
2017-11-22T17:10:50.000Z,12863.58008,4.59100008
2017-11-22T17:10:54.000Z,12876.08984,1.930999994
2017-11-22T17:10:57.000Z,12879.5,1.184999943
2017-11-22T17:11:04.000Z,12881.74023,0
2017-11-22T17:11:11.000Z,12884.11035,0
2017-11-22T17:11:37.000Z,12899.7998,0
2017-11-22T17:11:40.000Z,12902.26953,0
2017-11-22T17:11:41.000Z,12902.2998,0
2017-11-22T17:11:43.000Z,12902.38965,0
2017-11-22T17:11:54.000Z,12910.82031,0
2017-11-22T17:11:59.000Z,12915.58984,1.269000053
2017-11-22T17:12:01.000Z,12918.19043,1.968999982
2017-11-22T17:12:05.000Z,12932.5498,3.517999887
2017-11-22T17:12:09.000Z,12952.98047,5.206999779
2017-11-22T17:12:11.000Z,12965.29004,5.803999901
2017-11-22T17:12:14.000Z,12984.9502,5.813000202
2017-11-22T17:12:18.000Z,13007.2002,4.599999905
2017-11-22T17:12:21.000Z,13019.42969,3.059999943
2017-11-22T17:12:23.000Z,13024.7998,2.342000008
2017-11-22T17:12:25.000Z,13028.95996,1.996999979
2017-11-22T17:12:29.000Z,13034.2002,0.952000022
2017-11-22T17:12:31.000Z,13036.11035,0.998000026
2017-11-22T17:12:33.000Z,13038.7998,1.68900001
2017-11-22T17:12:35.000Z,13043.90039,3.003999949
2017-11-22T17:12:41.000Z,13070.5498,5.374000072
2017-11-22T17:12:44.000Z,13089.40039,6.34499979
2017-11-22T17:12:46.000Z,13102.78027,6.709000111
2017-11-22T17:12:48.000Z,13117.7002,7.353000164
2017-11-22T17:12:49.000Z,13125.29004,7.277999878
2017-11-22T17:12:52.000Z,13148.57031,7.605000019
2017-11-22T17:12:55.000Z,13171.95996,7.418000221
2017-11-22T17:12:56.000Z,13179.2998,7.175000191
2017-11-22T17:13:00.000Z,13209.00977,7.072999954
2017-11-22T17:13:03.000Z,13230.61035,7.110000134
2017-11-22T17:13:06.000Z,13250.92969,6.717999935
2017-11-22T17:13:11.000Z,13285.12988,7.053999901
2017-11-22T17:13:16.000Z,13320.53027,6.914000034
2017-11-22T17:13:17.000Z,13328.17969,7.743999958
2017-11-22T17:13:19.000Z,13344.07031,7.632999897
2017-11-22T17:13:22.000Z,13366.7002,7.324999809
2017-11-22T17:13:25.000Z,13389.16992,7.418000221
2017-11-22T17:13:30.000Z,13425.76953,7.184999943
2017-11-22T17:13:34.000Z,13454,6.401000023
2017-11-22T17:13:39.000Z,13484.53027,6.18599987
2017-11-22T17:13:40.000Z,13491.0498,6.373000145
2017-11-22T17:13:42.000Z,13504.5,6.568999767
2017-11-22T17:13:43.000Z,13511.33984,6.652999878
2017-11-22T17:13:45.000Z,13525.32031,7.045000076
2017-11-22T17:13:46.000Z,13532.67969,7.315000057
2017-11-22T17:13:48.000Z,13547.87012,7.353000164
2017-11-22T17:13:50.000Z,13562.61035,7.651000023
2017-11-22T17:13:52.000Z,13578.0498,7.688000202
2017-11-22T17:13:55.000Z,13602.08984,8.090000153
2017-11-22T17:13:57.000Z,13618.36035,7.828000069
2017-11-22T17:14:00.000Z,13641.71973,7.697999954
2017-11-22T17:14:02.000Z,13657.53027,7.866000175
2017-11-22T17:14:03.000Z,13665.48047,7.837999821
2017-11-22T17:14:04.000Z,13673.24023,7.735000134
2017-11-22T17:14:05.000Z,13681.28027,7.949999809
2017-11-22T17:14:07.000Z,13696.92969,7.921999931
2017-11-22T17:14:09.000Z,13712.17969,7.389999866
2017-11-22T17:14:12.000Z,13733.7002,6.727000237
2017-11-22T17:14:14.000Z,13745.25,4.833000183
2017-11-22T17:14:18.000Z,13758.34961,1.791000009
2017-11-22T17:14:26.000Z,13789,5.131999969
2017-11-22T17:14:30.000Z,13811.62012,5.831999779
2017-11-22T17:14:32.000Z,13824.09961,6.34499979
2017-11-22T17:14:35.000Z,13843.03027,6.289000034
2017-11-22T17:14:39.000Z,13869.92969,6.652999878
2017-11-22T17:14:42.000Z,13890.25,6.456999779
2017-11-22T17:14:44.000Z,13903.37988,6.120999813
2017-11-22T17:14:49.000Z,13933.32031,5.300000191
2017-11-22T17:14:50.000Z,13938.74023,5.290999889
2017-11-22T17:14:56.000Z,13971.80957,4.609000206
2017-11-22T17:15:00.000Z,13985.49023,2.220999956
2017-11-22T17:15:06.000Z,13989.48047,1.25
2017-11-22T17:15:12.000Z,14001.66016,2.286000013
2017-11-22T17:15:28.000Z,14014.04004,0
2017-11-22T17:15:34.000Z,14014.55957,0
2017-11-22T17:15:39.000Z,14016.69043,1.325000048
2017-11-22T17:15:44.000Z,14024.25977,1.661000013
2017-11-22T17:15:45.000Z,14025.75,1.465000033
2017-11-22T17:15:46.000Z,14027.05957,1.128999949
2017-11-22T17:15:47.000Z,14027.78027,0
2017-11-22T17:15:48.000Z,14027.7998,0
2017-11-22T17:15:49.000Z,14027.91016,0
2017-11-22T17:15:50.000Z,14028.24023,0.792999983
2017-11-22T17:15:51.000Z,14029.32031,1.269000053
2017-11-22T17:16:00.000Z,14034.04004,0
2017-11-22T17:16:08.000Z,14034.83008,0.952000022
2017-11-22T17:16:10.000Z,14036.9502,1.353000045
2017-11-22T17:16:17.000Z,14051.30957,1.092000008
2017-11-22T17:16:19.000Z,14054.57031,1.529999971
2017-11-22T17:16:21.000Z,14059.25,2.529000044
2017-11-22T17:16:23.000Z,14064.50977,2.210999966
2017-11-22T17:16:27.000Z,14074.7998,2.118000031
2017-11-22T17:16:29.000Z,14078.41016,1.166000009
2017-11-22T17:16:33.000Z,14082.12012,0.532000005
2017-11-22T17:16:37.000Z,14084.62988,0
2017-11-22T17:16:43.000Z,14085.38965,0
2017-11-22T17:16:58.000Z,14094.83008,0
2017-11-22T17:17:11.000Z,14097.29004,0
2017-11-22T17:17:13.000Z,14097.66992,0
2017-11-22T17:17:15.000Z,14098.75977,0
2017-11-22T17:17:22.000Z,14100.99023,0
2017-11-22T17:17:29.000Z,14103.58984,0.961000025
2017-11-22T17:17:40.000Z,14127.26953,2.08100009
2017-11-22T17:17:43.000Z,14135.5,2.799000025
2017-11-22T17:17:47.000Z,14148.9502,2.556999922
2017-11-22T17:18:05.000Z,14206.0498,2.789999962
2017-11-22T17:18:10.000Z,14221.37012,3.115999937
2017-11-22T17:18:13.000Z,14231.7998,3.451999903
2017-11-22T17:18:21.000Z,14265.12988,4.059000015
2017-11-22T17:18:30.000Z,14300.91016,2.957999945
2017-11-22T17:18:34.000Z,14316.53027,4.105999947
2017-11-22T17:18:36.000Z,14324.69043,3.648000002
2017-11-22T17:18:45.000Z,14359.65039,4.93599987
2017-11-22T17:18:49.000Z,14377.62012,4.563000202
2017-11-22T17:18:51.000Z,14386.15039,4.198999882
2017-11-22T17:18:54.000Z,14400.08984,4.460000038
2017-11-22T17:18:56.000Z,14410.25,4.572000027
2017-11-22T17:18:57.000Z,14415.19043,4.664999962
2017-11-22T17:18:58.000Z,14419.96973,4.487999916
2017-11-22T17:18:59.000Z,14424.71973,4.451000214
2017-11-22T17:19:01.000Z,14433.74023,4.15199995
2017-11-22T17:19:15.000Z,14493.91016,3.237999916
2017-11-22T17:19:19.000Z,14505.83984,2.714999914
2017-11-22T17:19:20.000Z,14509,2.612999916
2017-11-22T17:19:21.000Z,14513.45996,3.75999999
2017-11-22T17:19:26.000Z,14530.33984,4.618999958
2017-11-22T17:19:28.000Z,14539.9502,4.749000072
2017-11-22T17:19:30.000Z,14549.51953,4.684000015
2017-11-22T17:19:32.000Z,14559.13965,4.842999935
2017-11-22T17:19:37.000Z,14583.25977,4.525000095
2017-11-22T17:19:42.000Z,14606.07031,4.656000137
2017-11-22T17:19:44.000Z,14615.41016,2.482000113
2017-11-22T17:19:46.000Z,14624.17969,4.637000084
2017-11-22T17:19:49.000Z,14636.5,4.618999958
2017-11-22T17:19:50.000Z,14641.40039,4.272999763
2017-11-22T17:19:52.000Z,14651.08984,4.97300005
2017-11-22T17:19:56.000Z,14673.12012,4.787000179
2017-11-22T17:19:57.000Z,14678.76953,5.467999935
2017-11-22T17:20:01.000Z,14695.78027,4.833000183
2017-11-22T17:20:05.000Z,14717.61035,5.467999935
2017-11-22T17:20:07.000Z,14725.55957,4.749000072
2017-11-22T17:20:11.000Z,14746.44043,5.112999916
2017-11-22T17:20:13.000Z,14756.58984,5.047999859
2017-11-22T17:20:19.000Z,14790.76953,5.421000004
2017-11-22T17:20:20.000Z,14796.07031,5.263000011
2017-11-22T17:20:36.000Z,14852.5498,3.750999928
2017-11-22T17:20:38.000Z,14860.90039,3.694999933
2017-11-22T17:20:39.000Z,14865.08008,3.742000103
2017-11-22T17:20:40.000Z,14869.41992,3.657999992
2017-11-22T17:20:41.000Z,14873.53027,3.72300005
2017-11-22T17:20:48.000Z,14899.67969,2.220999956
2017-11-22T17:20:55.000Z,14919.25,1.717000008
2017-11-22T17:20:59.000Z,14924.38965,2.164999962
2017-11-22T17:21:02.000Z,14930.83008,3.003999949
2017-11-22T17:21:10.000Z,14959.57031,3.835000038
2017-11-22T17:21:15.000Z,14985.4502,2.426000118
2017-11-22T17:21:18.000Z,14994.58984,1.717000008
2017-11-22T17:21:22.000Z,15000.03027,1.305999994
2017-11-22T17:21:34.000Z,15042.37012,3.806999922
2017-11-22T17:21:41.000Z,15067.65039,1.800999999
2017-11-22T17:21:42.000Z,15069.21973,1.44599998
2017-11-22T17:22:01.000Z,15086.76953,0.913999975
2017-11-22T17:22:09.000Z,15102.75977,1.669999957
2017-11-22T17:22:20.000Z,15107.25,0.01
2017-11-22T17:24:37.000Z,15187.21973,0
2017-11-22T17:24:48.000Z,15214.26953,0
2017-11-22T17:24:55.000Z,15235.08008,1.148000002
2017-11-22T17:24:58.000Z,15249.42969,1.968999982
2017-11-22T17:25:10.000Z,15273.36035,0.913999975
2017-11-22T17:25:13.000Z,15274.30957,1.05400002
2017-11-22T17:25:29.000Z,15303.25977,1.305999994
2017-11-22T17:25:30.000Z,15303.25977,0.941999972
2017-11-22T17:25:31.000Z,15303.25977,0.755999982
2017-11-22T17:25:43.000Z,15317.03027,0.523000002
2017-11-22T17:25:48.000Z,15323.73047,0.980000019
2017-11-22T17:25:49.000Z,15325.58984,1.175999999
2017-11-22T17:25:58.000Z,15335.54004,0.662
2017-11-22T17:26:00.000Z,15339.38965,0.773999989
2017-11-22T17:26:01.000Z,15344.59961,1.175999999
2017-11-22T17:26:08.000Z,15357.65039,1.072999954
2017-11-22T17:26:14.000Z,15362.73047,0
2017-11-22T17:26:37.000Z,15369.42969,0.044
2017-11-22T17:27:45.000Z,15370,1.01699996
2017-11-22T17:27:49.000Z,15373.16992,1.241000056
2017-11-22T17:27:56.000Z,15378.23047,1.092000008
2017-11-22T17:28:10.000Z,15385.16016,0.773999989
2017-11-22T17:28:14.000Z,15390.87988,1.128999949
2017-11-22T17:28:21.000Z,15399.00977,0.896000028
2017-11-22T17:28:25.000Z,15399.54004,0.523000002
2017-11-22T17:28:27.000Z,15401.17969,0.998000026
2017-11-22T17:28:30.000Z,15401.73047,1.361999989
2017-11-22T17:28:33.000Z,15401.73047,1.577000022
2017-11-22T17:28:48.000Z,15413.17969,0.680999994
2017-11-22T17:29:01.000Z,15429.7002,1.01699996
2017-11-22T17:29:04.000Z,15433.17969,1.092000008
2017-11-22T17:29:06.000Z,15439.01953,1.05400002
2017-11-22T17:29:14.000Z,15468.50977,0.85799998
2017-11-22T17:29:29.000Z,15489.57031,0.699999988
2017-11-22T17:29:31.000Z,15491.61035,0.43900001
2017-11-22T17:29:48.000Z,15508.16016,0
2017-11-22T17:29:50.000Z,15509.19043,0
2017-11-22T17:29:59.000Z,15510.16992,0
2017-11-22T17:30:00.000Z,15510.34961,0
2017-11-22T17:30:11.000Z,15527.30957,1.044999957
2017-11-22T17:30:21.000Z,15583.80957,2.650000095
2017-11-22T17:30:33.000Z,15614.82031,0.745999992
2017-11-22T17:30:41.000Z,15628.38965,0.597000003
2017-11-22T17:30:42.000Z,15630.90039,0.924000025
2017-11-22T17:30:48.000Z,15637,0
2017-11-22T17:30:54.000Z,15647.08984,1.072999954
2017-11-22T17:31:04.000Z,15656.80957,1.213000059
2017-11-22T17:31:10.000Z,15690.49023,3.200000048
2017-11-22T17:31:41.000Z,15696.58984,0
2017-11-22T17:31:49.000Z,15706.61035,0.989000022
2017-11-22T17:31:57.000Z,15727.83984,0.652999997
2017-11-22T17:32:00.000Z,15731.33008,0.541000009
2017-11-22T17:32:05.000Z,15733.20996,0
2017-11-22T17:32:15.000Z,15746.5,1.06400001
2017-11-22T17:32:18.000Z,15751.2002,1.100999951
2017-11-22T17:32:20.000Z,15756.38965,1.427999973
2017-11-22T17:32:30.000Z,15772.83984,0.980000019
2017-11-22T17:32:38.000Z,15798.25977,2.529000044
2017-11-22T17:32:48.000Z,15816.76953,0.848999977
2017-11-22T17:32:52.000Z,15822.5,1.008000016
2017-11-22T17:33:03.000Z,15840.98047,0
2017-11-22T17:33:10.000Z,15847.91992,0
2017-11-22T17:33:34.000Z,15857.17969,0.643999994
2017-11-22T17:33:35.000Z,15859.63965,0.961000025
2017-11-22T17:33:44.000Z,15874.25977,0.980000019
2017-11-22T17:33:51.000Z,15892.26953,1.044999957
2017-11-22T17:34:01.000Z,15920.05957,3.470999956
2017-11-22T17:34:21.000Z,15969.95996,0.904999971
2017-11-22T17:34:27.000Z,16032.20996,2.546999931
2017-11-22T17:34:35.000Z,16036.12988,0.041000001
2017-11-22T17:34:48.000Z,16036.33008,0
2017-11-22T17:34:52.000Z,16040.37988,0.896000028
2017-11-22T17:34:55.000Z,16043.37988,0
2017-11-22T17:35:05.000Z,16058.9502,1.315999985
2017-11-22T17:35:10.000Z,16068.23047,1.120000005
2017-11-22T17:35:20.000Z,16085.74023,1.277999997
2017-11-22T17:35:30.000Z,16122.84961,0.625
2017-11-22T17:35:36.000Z,16136.23047,1.25
2017-11-22T17:35:50.000Z,16157.96973,1.539999962
2017-11-22T17:35:56.000Z,16158.30957,0
